<?xml version="1.0" encoding="UTF-8"?>
<svg width="35px" height="36px" viewBox="0 0 35 36" version="1.1" xmlns="http://www.w3.org/2000/svg" xmlns:xlink="http://www.w3.org/1999/xlink">
    <!-- Generator: Sketch 48.2 (47327) - http://www.bohemiancoding.com/sketch -->
    <title>AboutDonation/icon_check/red</title>
    <desc>Created with Sketch.</desc>
    <defs>
        <path d="M11,17 L31.5,17 C32.8807119,17 34,18.1192881 34,19.5 C34,20.8807119 32.8807119,22 31.5,22 L9.5,22 C9.32876708,22 9.16155497,21.9827849 9,21.9499909 C8.83844503,21.9827849 8.67123292,22 8.5,22 C7.11928813,22 6,20.8807119 6,19.5 L6,10.5 C6,9.11928813 7.11928813,8 8.5,8 C9.88071187,8 11,9.11928813 11,10.5 L11,17 Z" id="path-1"></path>
    </defs>
    <g id="Symbols" stroke="none" stroke-width="1" fill="none" fill-rule="evenodd">
        <g id="AboutDonation/icon_check/red">
            <circle id="Oval-4" fill="#FF5A70" cx="16" cy="20" r="16"></circle>
            <g id="Combined-Shape" transform="translate(20.000000, 15.000000) rotate(-44.000000) translate(-20.000000, -15.000000) ">
                <use fill="#FFFFFF" fill-rule="evenodd" xlink:href="#path-1"></use>
                <path stroke="#FF5A70" stroke-width="1" d="M31.5,17.5 L10.5,17.5 L10.5,10.5 C10.5,9.3954305 9.6045695,8.5 8.5,8.5 C7.3954305,8.5 6.5,9.3954305 6.5,10.5 L6.5,19.5 C6.5,20.6045695 7.3954305,21.5 8.5,21.5 C8.63595422,21.5 8.76987212,21.4865073 8.9005339,21.4599843 L9.0994661,21.4599843 C9.23012788,21.4865073 9.36404578,21.5 9.5,21.5 L31.5,21.5 C32.6045695,21.5 33.5,20.6045695 33.5,19.5 C33.5,18.3954305 32.6045695,17.5 31.5,17.5 Z"></path>
            </g>
        </g>
    </g>
</svg>