<?xml version="1.0" encoding="UTF-8"?>
<svg width="42px" height="42px" viewBox="0 0 42 42" version="1.1" xmlns="http://www.w3.org/2000/svg" xmlns:xlink="http://www.w3.org/1999/xlink">
    <!-- Generator: Sketch 48.2 (47327) - http://www.bohemiancoding.com/sketch -->
    <title>Combined Shape</title>
    <desc>Created with Sketch.</desc>
    <defs></defs>
    <g id="Aboutusのページ" stroke="none" stroke-width="1" fill="none" fill-rule="evenodd" transform="translate(-203.000000, -1933.000000)">
        <path d="M231,1954 L245,1968 L238,1975 L224,1961 L210,1975 L203,1968 L217,1954 L203,1940 L210,1933 L224,1947 L238,1933 L245,1940 L231,1954 Z" id="Combined-Shape" fill="#4FBF9E"></path>
    </g>
</svg>