<?xml version="1.0" encoding="UTF-8"?>
<svg width="1133px" height="316px" viewBox="0 0 1133 316" version="1.1" xmlns="http://www.w3.org/2000/svg" xmlns:xlink="http://www.w3.org/1999/xlink">
    <!-- Generator: Sketch 48.2 (47327) - http://www.bohemiancoding.com/sketch -->
    <title>donation_koujo</title>
    <desc>Created with Sketch.</desc>
    <defs>
        <rect id="path-1" x="0" y="88" width="103" height="6" rx="3"></rect>
        <rect id="path-2" x="17" y="10" width="29" height="72" rx="5"></rect>
        <rect id="path-3" x="54" y="48" width="29" height="34" rx="5"></rect>
        <path d="M121,17 L138,0 L155,17 L271,17 C273.761424,17 276,19.2385763 276,22 L276,109 C276,111.761424 273.761424,114 271,114 L5,114 C2.23857625,114 3.38176876e-16,111.761424 0,109 L0,22 C-3.38176876e-16,19.2385763 2.23857625,17 5,17 L121,17 Z" id="path-4"></path>
        <filter x="-2.5%" y="-4.4%" width="105.1%" height="112.3%" filterUnits="objectBoundingBox" id="filter-5">
            <feOffset dx="0" dy="2" in="SourceAlpha" result="shadowOffsetOuter1"></feOffset>
            <feGaussianBlur stdDeviation="2" in="shadowOffsetOuter1" result="shadowBlurOuter1"></feGaussianBlur>
            <feColorMatrix values="0 0 0 0 0   0 0 0 0 0   0 0 0 0 0  0 0 0 0.5 0" type="matrix" in="shadowBlurOuter1"></feColorMatrix>
        </filter>
        <path d="M158.264493,17 L180.5,0 L202.735507,17 L356,17 C358.761424,17 361,19.2385763 361,22 L361,109 C361,111.761424 358.761424,114 356,114 L5,114 C2.23857625,114 3.38176876e-16,111.761424 0,109 L0,22 C-3.38176876e-16,19.2385763 2.23857625,17 5,17 L158.264493,17 Z" id="path-6"></path>
        <filter x="-1.9%" y="-4.4%" width="103.9%" height="112.3%" filterUnits="objectBoundingBox" id="filter-7">
            <feOffset dx="0" dy="2" in="SourceAlpha" result="shadowOffsetOuter1"></feOffset>
            <feGaussianBlur stdDeviation="2" in="shadowOffsetOuter1" result="shadowBlurOuter1"></feGaussianBlur>
            <feColorMatrix values="0 0 0 0 0   0 0 0 0 0   0 0 0 0 0  0 0 0 0.5 0" type="matrix" in="shadowBlurOuter1"></feColorMatrix>
        </filter>
        <path d="M121,17 L138,0 L155,17 L271,17 C273.761424,17 276,19.2385763 276,22 L276,109 C276,111.761424 273.761424,114 271,114 L5,114 C2.23857625,114 3.38176876e-16,111.761424 0,109 L0,22 C-3.38176876e-16,19.2385763 2.23857625,17 5,17 L121,17 Z" id="path-8"></path>
        <filter x="-2.5%" y="-4.4%" width="105.1%" height="112.3%" filterUnits="objectBoundingBox" id="filter-9">
            <feOffset dx="0" dy="2" in="SourceAlpha" result="shadowOffsetOuter1"></feOffset>
            <feGaussianBlur stdDeviation="2" in="shadowOffsetOuter1" result="shadowBlurOuter1"></feGaussianBlur>
            <feColorMatrix values="0 0 0 0 0   0 0 0 0 0   0 0 0 0 0  0 0 0 0.5 0" type="matrix" in="shadowBlurOuter1"></feColorMatrix>
        </filter>
    </defs>
    <g id="寄付についてのページ" stroke="none" stroke-width="1" fill="none" fill-rule="evenodd" transform="translate(-74.000000, -1509.000000)">
        <g id="donation_koujo" transform="translate(74.000000, 1509.000000)">
            <path d="M676,0 L1122.97567,0 C1128.49852,-3.04461744e-14 1132.97567,4.4771525 1132.97567,10 L1132.97567,306 C1132.97567,311.522847 1128.49852,316 1122.97567,316 L676,316 L676,0 Z" id="Combined-Shape-Copy-4" fill="#A2E1CF"></path>
            <path d="M703,0 L703.308824,0 L772,155.723411 L703.308824,316 L703,316 L352,316 L352,0 L703,0 Z" id="Combined-Shape-Copy" fill="#74D7BB"></path>
            <path d="M351,0 L351.308824,0 L420,155.723411 L351.308824,316 L351,316 L10,316 C4.4771525,316 6.76353751e-16,311.522847 0,306 L0,10 C-6.76353751e-16,4.4771525 4.4771525,1.01453063e-15 10,0 L351,0 Z" id="Combined-Shape" fill="#4FBF9E"></path>
            <g id="yen-coin-on-hands" transform="translate(128.000000, 68.000000)" fill="#FFFFFF" fill-rule="nonzero">
                <path d="M100.265771,34.2225991 L100.488847,33.9830098 L99.5960752,32.974213 C98.4566169,31.6879971 96.5418571,31.6753872 95.3789048,32.9363832 L91.8430599,36.7950309 C90.7388425,38.0055871 90.7153486,39.934911 91.7960719,41.170687 L94.4626393,44.2096874 C97.2819176,47.0973682 98.5036049,49.8085096 98.7737857,52.217012 L101.252401,54.8778397 C101.581434,55.2309185 101.863245,55.5966074 102.098185,56 C102.286254,55.5586514 102.462459,55.0794729 102.603305,54.5625907 C103.037944,52.9989556 103.120173,51.3973646 102.826498,49.8211196 C102.450594,47.7404762 101.440353,45.6220029 99.8310151,43.5035296 C98.8090267,42.1668739 98.292159,40.4771392 98.3861349,38.7621847 C98.4684814,37.0472301 99.1379425,35.4332813 100.265771,34.2225991 Z" id="Shape"></path>
                <path d="M108.746825,33 C107.986911,33 107.226759,33.2892147 106.644978,33.8796947 L104.079747,36.482627 L103.913609,36.6513356 C102.832818,37.7479414 102.737933,39.4832296 103.711725,40.6762402 C112.772744,51.8712593 103.640353,60.6802571 103.640353,60.6802571 L88.7959585,75.7555734 C88.5584482,75.9965857 88.2615603,76.1050412 87.9527968,76.1050412 C87.6440334,76.1050412 87.3471455,75.984535 87.1096352,75.7555734 L86.8840004,75.5266118 C86.4208553,75.0566379 86.4208553,74.2975698 86.8840004,73.8274754 L99.8639393,60.6560353 C101.02774,59.4751958 101.02774,57.5710785 99.8639393,56.3903595 L99.2464125,55.7636072 L96.8594338,53.3293834 C96.2775335,52.7389034 95.5175005,52.4496887 94.7574675,52.4496887 C93.9975532,52.4496887 93.2374014,52.7387829 92.6555011,53.3293834 L86.0409575,60.0415746 C85.660941,60.4273147 85.1739261,60.7043583 84.6515222,60.836915 C81.3620043,61.6564772 68.6314512,65.596907 64.1662572,78.5513155 C64.0593776,78.8768026 64,79.2140992 64,79.563567 L64,92.9879494 C64.34439,92.9276963 64.6887799,92.9037156 65.0450454,92.9037156 L85.9459534,92.9037156 C86.3259699,92.9037156 86.7059864,92.9397469 87.0622519,93 L87.0741274,91.0961237 C87.0741274,89.7463346 87.7272808,88.4810203 88.7960772,87.6856799 L95.8501337,82.5401888 C98.7477596,80.41904 101.467253,78.0691705 103.996738,75.5145612 L112.107834,67.2838723 C112.107834,67.2838723 126.07344,51.8471581 111.003292,34.0484033 C110.409397,33.3495883 109.578111,33 108.746825,33 Z" id="Shape"></path>
                <path d="M14.1684838,49.8178714 C13.8864363,51.394945 13.9569482,52.9972518 14.3917713,54.561835 C14.5327951,55.0791152 14.7090747,55.5584194 14.8971064,56 C15.1438979,55.5963953 15.4259453,55.2303881 15.7432487,54.8772498 L18.2229159,52.2150233 C18.4932114,49.8052548 19.703665,47.0926882 22.5358915,44.2034893 L25.2035903,41.1628914 C26.2847722,39.9264657 26.2612683,37.9961276 25.1565824,36.784935 L21.6192373,32.9368754 C20.4557915,31.6752165 18.5519712,31.6878331 17.4002775,32.9747252 L16.5071272,33.9840523 L16.7304148,34.2237675 C17.8586046,35.43496 18.5284673,37.0498834 18.6224831,38.7657395 C18.704747,40.4942122 18.18766,42.1848351 17.1769899,43.5095769 C15.5434651,45.6165473 14.544547,47.748877 14.1684838,49.8178714 Z" id="Shape"></path>
                <path d="M22.1498642,82.5058253 L29.2039474,87.6505034 C30.2846235,88.4336328 30.9259038,89.7107361 30.9259038,91.0600078 L30.9377793,92.9274702 C31.2227928,92.8914462 31.5078062,92.8672294 31.8046953,92.8672294 L52.7056826,92.8672294 C53.1449596,92.8672294 53.5843554,92.915422 54,93 L54,79.5419818 C54,79.2047542 53.9406222,78.855358 53.8338609,78.5299376 C49.3685312,65.5781824 36.6379298,61.6385597 33.3485182,60.8191654 C32.8259935,60.6866358 32.3390955,60.4097694 31.9590776,60.0239879 L25.3325145,53.3131714 C24.750612,52.7228124 23.9905761,52.4336569 23.2305402,52.4336569 C22.4705043,52.4336569 21.7104684,52.7226919 21.1285659,53.3131714 L18.7297026,55.7468966 L18.1121734,56.3735206 C16.9483685,57.5541183 16.9483685,59.4578456 18.1121734,60.6383227 L31.0921616,73.807065 C31.5553085,74.2769427 31.5553085,75.0358553 31.0921616,75.5058534 L30.8665259,75.7347681 C30.6290147,75.975731 30.3321257,76.0841643 30.0233611,76.0841643 C29.7145965,76.0841643 29.4177075,75.9636829 29.1801963,75.7347681 L14.3476206,60.6745877 C14.3476206,60.6745877 5.21531421,51.8673941 14.2763672,40.674668 C15.2382877,39.4819017 15.1432832,37.7349207 14.0744827,36.6505877 L13.9082249,36.4819137 L11.3431037,33.8795145 C10.7612012,33.2891555 10.0011653,33 9.24112939,33 C8.40984012,33 7.57855085,33.3493962 6.99664836,34.0481886 C-8.07343854,51.8432978 5.89222119,67.2770913 5.89222119,67.2770913 L14.0032293,75.5058534 C16.5208483,78.0480119 19.2522273,80.3974 22.1498642,82.5058253 Z" id="Shape"></path>
                <path d="M87,27.9999388 C87,12.5369206 74.6869261,0 59.5,0 C44.3130739,0 32,12.5369206 32,27.9999388 C32,43.462957 44.3130739,56 59.5,56 C74.6869261,56 87,43.4630794 87,27.9999388 Z M72.4622759,14.6918262 L64.4058701,27.5593101 L67.1113795,27.5593101 C68.6024158,27.5593101 69.8168889,28.7958618 69.8168889,30.3140046 C69.8168889,31.8321473 68.6024158,33.068699 67.1113795,33.068699 L62.4458789,33.068699 L62.4458789,35.0031067 L67.0993551,35.0031067 C68.5902711,35.0031067 69.8048645,36.2396584 69.8048645,37.7578011 C69.8048645,39.2759439 68.5902711,40.5124956 67.0993551,40.5124956 L62.4458789,40.5124956 L62.4458789,44.3445817 C62.4458789,45.8627244 61.2314058,47.0992761 59.7403695,47.0992761 C58.2493332,47.0992761 57.0348601,45.8627244 57.0348601,44.3445817 L57.0348601,40.5124956 L52.3813839,40.5124956 C50.8904679,40.5124956 49.6758745,39.2759439 49.6758745,37.7578011 C49.6758745,36.2396584 50.8904679,35.0031067 52.3813839,35.0031067 L57.0348601,35.0031067 L57.0348601,33.068699 L52.3813839,33.068699 C50.8904679,33.068699 49.6758745,31.8321473 49.6758745,30.3140046 C49.6758745,28.7958618 50.8904679,27.5593101 52.3813839,27.5593101 L55.0868933,27.5593101 L47.0304875,14.6918262 C46.224847,13.4063021 46.597606,11.7045131 47.8601771,10.8842263 C49.1227481,10.0639395 50.7940315,10.4434752 51.5997923,11.7289993 L59.7644185,24.7556433 L67.9289244,11.7289993 C68.7345649,10.4434752 70.4060888,10.0639395 71.6686598,10.8842263 C72.8952777,11.7045131 73.2680367,13.4063021 72.4622759,14.6918262 Z" id="Shape"></path>
                <path d="M86.0764292,97.1889192 C85.7417965,97.0590372 85.3833894,97 85.0131549,97 L63.9866062,97 C63.6281991,97 63.2936858,97.0590372 62.9830664,97.1771117 C62.3498805,97.4012171 61.8243363,97.8265213 61.4659292,98.3696639 C61.1672566,98.8301544 61,99.373297 61,99.9518619 L61,100.967302 L61,107.048138 C61,108.677448 62.3380531,110 63.9867257,110 L85.0132743,110 C86.6619469,110 88,108.677448 88,107.048138 L88,101.038147 L88,99.95198 C88,99.3969119 87.8446903,98.8772661 87.5699115,98.4288193 C87.2351593,97.8736331 86.709615,97.4250681 86.0764292,97.1889192 Z" id="Shape"></path>
                <path d="M31.976062,110 L53.011948,110 C54.6613527,110 56,108.67746 56,107.048165 L56,101.238835 L56,99.9518351 C56,99.4795415 55.8804779,99.0192914 55.6772904,98.6295311 C55.3784852,98.0273567 54.8645402,97.5550631 54.2549776,97.2716869 C53.872507,97.0945768 53.4541797,97 53.0120675,97 L31.9761815,97 C31.6893285,97 31.4144277,97.0355401 31.1514792,97.1180734 C30.5180121,97.2951835 29.9682106,97.6849438 29.5857399,98.1927775 C29.2152215,98.6885678 29.0000817,99.2907421 29.0000817,99.9518351 L29.0000817,100.731356 L29.0000817,107.036239 C28.98801,108.67746 30.3148246,110 31.976062,110 Z" id="Shape"></path>
            </g>
            <g id="cut_icon" transform="translate(888.000000, 70.000000)">
                <path d="M69.2118701,21.7014014 L73.7688696,33.8534002 C73.9627898,34.3705205 73.7007842,34.9469327 73.1836639,35.1408528 C73.0713869,35.1829567 72.9524524,35.2045236 72.8325405,35.2045236 L63.7185414,35.2045236 C63.1662567,35.2045236 62.7185414,34.7568083 62.7185414,34.2045236 C62.7185414,34.0846116 62.7401083,33.9656772 62.7822122,33.8534002 L67.3392118,21.7014014 C67.5331319,21.1842811 68.1095441,20.9222755 68.6266644,21.1161957 C68.8970877,21.2176044 69.1104614,21.4309781 69.2118701,21.7014014 Z" id="Triangle" stroke="#FFFFFF" stroke-width="3" fill="#FFFFFF" transform="translate(68.275541, 27.204524) rotate(182.000000) translate(-68.275541, -27.204524) "></path>
                <path d="M100.433357,43.6820474 L103.253152,51.2014989 C103.447072,51.7186192 103.185066,52.2950314 102.667946,52.4889515 C102.555669,52.5310554 102.436734,52.5526223 102.316822,52.5526223 L96.6772337,52.5526223 C96.124949,52.5526223 95.6772337,52.1049071 95.6772337,51.5526223 C95.6772337,51.4327104 95.6988007,51.313776 95.7409046,51.2014989 L98.5606989,43.6820474 C98.754619,43.1649271 99.3310312,42.9029216 99.8481515,43.0968417 C100.118575,43.1982504 100.331948,43.4116241 100.433357,43.6820474 Z" id="Triangle-Copy" stroke="#FFFFFF" stroke-width="3" fill="#FFFFFF" transform="translate(99.497164, 47.792761) rotate(257.000000) translate(-99.497164, -47.792761) "></path>
                <path d="M97.8676994,32.7699437 L80.2470805,38.4034803 C79.9457083,38.4998328 79.6165161,38.4478764 79.3594689,38.2633886 C78.9107862,37.9413602 78.8081127,37.3165754 79.1301411,36.8678927 C81.4994097,33.566787 83.8686783,30.2656812 86.2379469,26.9645754 C82.9232602,24.2359519 81,20.9870824 81,17.5 C81,7.83501688 95.7746033,0 114,0 C132.225397,0 147,7.83501688 147,17.5 C147,27.1649831 132.225397,35 114,35 C108.140433,35 102.637561,34.1901269 97.867703,32.7699448 Z" id="Combined-Shape" stroke="#FFFFFF" stroke-width="3" fill="#CADFD9"></path>
                <text id="cut!!" font-family="NotoSansCJKjp-Medium, Noto Sans CJK JP" font-size="18" font-weight="400" fill="#FFFFFF">
                    <tspan x="94.029" y="25">cut!!</tspan>
                </text>
                <g id="Rectangle-18">
                    <use fill="#FFFFFF" fill-rule="evenodd" xlink:href="#path-1"></use>
                    <rect stroke="#FFFFFF" stroke-width="1" x="0.5" y="88.5" width="102" height="5" rx="2.5"></rect>
                </g>
                <g id="Rectangle-2">
                    <use fill="#CADFD9" fill-rule="evenodd" xlink:href="#path-2"></use>
                    <rect stroke="#FFFFFF" stroke-width="5" x="19.5" y="12.5" width="24" height="67" rx="5"></rect>
                </g>
                <g id="Rectangle-2-Copy">
                    <use fill="#FFFFFF" fill-rule="evenodd" xlink:href="#path-3"></use>
                    <rect stroke="#FFFFFF" stroke-width="5" x="56.5" y="50.5" width="24" height="29" rx="5"></rect>
                </g>
            </g>
            <g id="AboutDonation/fukidashi" transform="translate(428.000000, 194.000000)">
                <g id="Combined-Shape">
                    <use fill="black" fill-opacity="1" filter="url(#filter-5)" xlink:href="#path-4"></use>
                    <use fill="#FFFFFF" fill-rule="evenodd" xlink:href="#path-4"></use>
                </g>
                <text id="１年間で1000円×12ヶ月=12,00" font-family="NotoSansCJKjp-Medium, Noto Sans CJK JP" font-size="18" font-weight="400" fill="#4A4A4A">
                    <tspan x="16" y="54">12,000円の寄付をしました！</tspan>
                </text>
            </g>
            <g id="contract" transform="translate(537.000000, 82.000000)" fill="#FFFFFF" fill-rule="nonzero">
                <path d="M16.7167929,27.7227723 L56.5505338,27.7227723 C58.1275342,27.7227723 59.4059406,26.3929279 59.4059406,24.7524752 C59.4059406,23.1120226 58.1275342,21.7821782 56.5505338,21.7821782 L16.7167929,21.7821782 C15.1397926,21.7821782 13.8613861,23.1120226 13.8613861,24.7524752 C13.8613861,26.3929279 15.1397926,27.7227723 16.7167929,27.7227723 Z" id="Shape"></path>
                <path d="M16.7167929,36.6336634 L56.5505338,36.6336634 C58.1275342,36.6336634 59.4059406,35.303819 59.4059406,33.6633663 C59.4059406,32.0229137 58.1275342,30.6930693 56.5505338,30.6930693 L16.7167929,30.6930693 C15.1397926,30.6930693 13.8613861,32.0229137 13.8613861,33.6633663 C13.8613861,35.303819 15.1397926,36.6336634 16.7167929,36.6336634 Z" id="Shape"></path>
                <path d="M37.7444146,71.2871287 L16.7114381,71.2871287 C15.1373951,71.2871287 13.8613861,72.6169731 13.8613861,74.2574257 C13.8613861,75.8978784 15.1373951,77.2277228 16.7114381,77.2277228 L37.7440074,77.2277228 C39.3180504,77.2277228 40.5940594,75.8978784 40.5940594,74.2574257 C40.5940594,72.6169731 39.3184576,71.2871287 37.7444146,71.2871287 Z" id="Shape"></path>
                <path d="M98.5844708,5.51975374 L90.0152754,0.412841229 C89.3523911,0.0178702656 88.558762,-0.10000065 87.8088533,0.0865249043 C87.0589446,0.272636876 86.4139648,0.747429196 86.0163175,1.40543841 L71.0976731,26.1020835 L71.0976731,8.59928651 C71.0976731,7.00037788 69.7927237,5.70421139 68.1829808,5.70421139 L2.91469231,5.70421139 C1.30494939,5.70421139 0,7.00037788 0,8.59928651 L0,90.1742318 C0,91.7731404 1.30494939,93.0693069 2.91469231,93.0693069 L68.1829808,93.0693069 C69.7927237,93.0693069 71.0976731,91.7731404 71.0976731,90.1742318 L71.0976731,56.6484347 L99.5842102,9.49179681 C100.412399,8.12077195 99.9647858,6.34278224 98.5844708,5.51975374 Z M60.9424687,62.2057382 L56.1053286,66.193911 L57.3719707,60.077858 L85.3330304,13.7909834 L88.9035284,15.9188636 L60.9424687,62.2057382 Z M91.9027468,10.9538097 L88.3322487,8.82592953 L89.5156138,6.86720442 L93.0861119,8.99508464 L91.9027468,10.9538097 Z M5.82938462,87.2791567 L5.82938462,11.4943616 L65.2682885,11.4943616 L65.2682885,35.7521961 L60.1205255,44.2736429 C60.1409283,44.1350929 60.1550854,43.9948885 60.1550854,43.8509619 C60.1550854,42.2520533 58.850136,40.9558868 57.2403931,40.9558868 L16.5796026,40.9558868 C14.9698597,40.9558868 13.6649103,42.2520533 13.6649103,43.8509619 C13.6649103,45.4498706 14.9698597,46.7460371 16.5796026,46.7460371 L57.2403931,46.7460371 C57.8895367,46.7460371 58.4866323,46.5326287 58.9708876,46.1765344 L56.1161546,50.9021242 L16.5796026,50.9021242 C14.9698597,50.9021242 13.6649103,52.1982907 13.6649103,53.7971993 C13.6649103,55.3961079 14.9698597,56.6922744 16.5796026,56.6922744 L52.6185239,56.6922744 L52.1171968,57.5219203 C51.9481446,57.8019154 51.8278095,58.1083798 51.7616043,58.4280788 L51.2606936,60.847948 L16.5796026,60.847948 C14.9698597,60.847948 13.6649103,62.1441145 13.6649103,63.7430231 C13.6649103,65.3419317 14.9698597,66.6380982 16.5796026,66.6380982 L50.061506,66.6380982 L48.7219966,73.1061096 C48.4725823,74.3100473 49.0159642,75.5392135 50.0773286,76.1719942 C50.541181,76.4482671 51.0599963,76.5847492 51.5767296,76.5847492 C52.2416958,76.5847492 52.9029146,76.3593469 53.4388016,75.9172276 L65.0476047,66.3461092 C65.1271341,66.2803497 65.196254,66.203837 65.2682885,66.1306329 L65.2682885,87.2791567 L5.82938462,87.2791567 Z" id="Shape"></path>
            </g>
            <g id="AboutDonation/fukidashi-Copy" transform="translate(764.000000, 194.000000)">
                <g id="Combined-Shape">
                    <use fill="black" fill-opacity="1" filter="url(#filter-7)" xlink:href="#path-6"></use>
                    <use fill="#FFFFFF" fill-rule="evenodd" xlink:href="#path-6"></use>
                </g>
                <text id="所得税：(12,000円---2000円" font-family="NotoSansCJKjp-Medium, Noto Sans CJK JP" font-size="15" font-weight="400" fill="#4A4A4A">
                    <tspan x="10" y="49">所得税：(12,000円 - 2000円) x 40% = 4,000円</tspan>
                    <tspan x="10" y="71">住民税：(12,000円 - 2000円) x 10% = 1,000円 ※2</tspan>
                    <tspan x="10" y="93" font-family="ZapfDingbatsITC, Zapf Dingbats" font-weight="normal">➡︎</tspan>
                    <tspan x="22.421875" y="93">合計5,000円が控除される！※3</tspan>
                </text>
            </g>
            <g id="AboutDonation/fukidashi" transform="translate(49.000000, 194.000000)">
                <g id="Combined-Shape">
                    <use fill="black" fill-opacity="1" filter="url(#filter-9)" xlink:href="#path-8"></use>
                    <use fill="#FFFFFF" fill-rule="evenodd" xlink:href="#path-8"></use>
                </g>
                <text id="１年間で1000円×12ヶ月=12,00" font-family="NotoSansCJKjp-Medium, Noto Sans CJK JP" font-size="18" font-weight="400" fill="#4A4A4A">
                    <tspan x="16" y="54">１年間で1000円×12ヶ月</tspan>
                    <tspan x="16" y="81">=12,000円</tspan>
                </text>
            </g>
            <g id="AboutDonation/number" transform="translate(33.000000, 16.000000)">
                <circle id="Oval" fill="#FFFFFF" fill-rule="evenodd" cx="25" cy="25" r="25"></circle>
                <text id="1" font-family="NotoSansCJKjp-Medium, Noto Sans CJK JP" font-size="18" font-weight="400" fill="#4FBF9E">
                    <tspan x="19.87" y="33">1</tspan>
                </text>
            </g>
            <g id="AboutDonation/number" transform="translate(432.000000, 16.000000)">
                <circle id="Oval" fill="#FFFFFF" fill-rule="evenodd" cx="25" cy="25" r="25"></circle>
                <text id="1" font-family="NotoSansCJKjp-Medium, Noto Sans CJK JP" font-size="18" font-weight="400" fill="#4FBF9E">
                    <tspan x="19.87" y="33">2</tspan>
                </text>
            </g>
            <g id="AboutDonation/number" transform="translate(771.000000, 16.000000)">
                <circle id="Oval" fill="#FFFFFF" fill-rule="evenodd" cx="25" cy="25" r="25"></circle>
                <text id="1" font-family="NotoSansCJKjp-Medium, Noto Sans CJK JP" font-size="18" font-weight="400" fill="#4FBF9E">
                    <tspan x="19.87" y="33">3</tspan>
                </text>
            </g>
            <text id="毎月1000円の寄付をする" font-family="NotoSansCJKjp-Medium, Noto Sans CJK JP" font-size="18" font-weight="400" fill="#FFFFFF">
                <tspan x="105.98" y="50">毎月1000円の寄付をする</tspan>
            </text>
            <text id="確定申告時に申請する" font-family="NotoSansCJKjp-Medium, Noto Sans CJK JP" font-size="18" font-weight="400" fill="#FFFFFF">
                <tspan x="498.5" y="46">確定申告時に申請する</tspan>
            </text>
            <text id="税金が控除される" font-family="NotoSansCJKjp-Medium, Noto Sans CJK JP" font-size="18" font-weight="400" fill="#FFFFFF">
                <tspan x="840" y="49">税金が控除される</tspan>
            </text>
        </g>
    </g>
</svg>