<?xml version="1.0" encoding="UTF-8"?>
<svg width="66px" height="42px" viewBox="0 0 66 42" version="1.1" xmlns="http://www.w3.org/2000/svg" xmlns:xlink="http://www.w3.org/1999/xlink">
    <!-- Generator: Sketch 48.2 (47327) - http://www.bohemiancoding.com/sketch -->
    <title>Triangle</title>
    <desc>Created with Sketch.</desc>
    <defs></defs>
    <g id="Aboutusのページ" stroke="none" stroke-width="1" fill="none" fill-rule="evenodd" transform="translate(-607.000000, -883.000000)">
        <path d="M643.766792,884.712065 L671.706224,916.720253 C673.522139,918.800617 673.307762,921.959175 671.227399,923.77509 C670.316541,924.570163 669.148443,925.008259 667.939393,925.008259 L612.060529,925.008259 C609.299105,925.008259 607.060529,922.769683 607.060529,920.008259 C607.060529,918.799209 607.498625,917.631111 608.293698,916.720253 L636.23313,884.712065 C638.049045,882.631702 641.207604,882.417324 643.287967,884.23324 C643.458212,884.381844 643.618187,884.541819 643.766792,884.712065 Z" id="Triangle" fill="#4FBF9E" transform="translate(639.999996, 904.004130) scale(1, -1) translate(-639.999996, -904.004130) "></path>
    </g>
</svg>