<?xml version="1.0" encoding="UTF-8"?>
<svg width="143px" height="91px" viewBox="0 0 143 91" version="1.1" xmlns="http://www.w3.org/2000/svg" xmlns:xlink="http://www.w3.org/1999/xlink">
    <!-- Generator: Sketch 48.2 (47327) - http://www.bohemiancoding.com/sketch -->
    <title>About_Us/Puzzle_Shape_A</title>
    <desc>Created with Sketch.</desc>
    <defs>
        <path d="M143,30.6630435 L128,30.6630435 L128,59.3478261 L143,59.3478261 L143,81 C143,86.5228475 138.522847,91 133,91 L10,91 C4.4771525,91 6.76353751e-16,86.5228475 0,81 L0,10 C-6.76353751e-16,4.4771525 4.4771525,1.01453063e-15 10,0 L133,0 C138.522847,-1.01453063e-15 143,4.4771525 143,10 L143,30.6630435 Z" id="path-1"></path>
    </defs>
    <g id="Symbols" stroke="none" stroke-width="1" fill="none" fill-rule="evenodd">
        <g id="About_Us/Puzzle_Shape_A">
            <g id="Combined-Shape">
                <use fill="#FFFFFF" fill-rule="evenodd" xlink:href="#path-1"></use>
                <path stroke="#4FBF9E" stroke-width="5" d="M140.5,28.1630435 L140.5,10 C140.5,5.85786438 137.142136,2.5 133,2.5 L10,2.5 C5.85786438,2.5 2.5,5.85786438 2.5,10 L2.5,81 C2.5,85.1421356 5.85786438,88.5 10,88.5 L133,88.5 C137.142136,88.5 140.5,85.1421356 140.5,81 L140.5,61.8478261 L125.5,61.8478261 L125.5,28.1630435 L140.5,28.1630435 Z"></path>
            </g>
        </g>
    </g>
</svg>